<?xml version="1.0" encoding="UTF-8"?>
<svg width="9px" height="10px" viewBox="0 0 9 10" version="1.1" xmlns="http://www.w3.org/2000/svg" xmlns:xlink="http://www.w3.org/1999/xlink">
    <!-- Generator: Sketch 52 (66869) - http://www.bohemiancoding.com/sketch -->
    <title>地点@1x</title>
    <desc>Created with Sketch.</desc>
    <g id="Page-1" stroke="none" stroke-width="1" fill="none" fill-rule="evenodd">
        <g id="首页" transform="translate(-22.000000, -729.000000)" fill="#3E3A39" fill-rule="nonzero">
            <g id="分组-copy-4" transform="translate(15.000000, 600.000000)">
                <path d="M15.3806346,133.140093 C15.3806346,130.853526 13.5045915,129 11.1902912,129 C8.87605611,129 7,130.853526 7,133.140093 C7,133.212664 7.00723154,133.282812 7.01102321,133.353856 C7.00758334,133.388948 7,133.422791 7,133.458806 C7,136.00699 10.8680123,138.89339 10.8680123,138.89339 C10.8680123,138.89339 11.1903303,139.132197 11.5126614,138.89339 C11.8349795,138.654318 15.3806737,136.00699 15.3806737,133.458806 C15.3806737,133.422791 15.3730903,133.388948 15.3696505,133.353856 C15.373403,133.282812 15.3806346,133.212664 15.3806346,133.140093 Z M11.1902912,134.73286 C10.3001086,134.73286 9.57867484,134.01991 9.57867484,133.140093 C9.57867484,132.260895 10.3000956,131.54792 11.1902912,131.54792 C12.080526,131.54792 12.8019988,132.260895 12.8019988,133.140093 C12.8019988,134.01991 12.080526,134.73286 11.1902912,134.73286 Z" id="地点"></path>
            </g>
        </g>
    </g>
</svg>